[{
    "_id": "55c8ee82152165d244b98300",
    "name": "Bayard stew",
    "ingredients": "concentrated gluten, jewelry, dill, beetle nut, toast",
    "caffeineScale": 244,
    "price": 1540,
    "inStock": true,
    "rating": 1,
    "imageUrl": "http://s7d5.scene7.com/is/image/Teavana/32664_d?$cimg$",
    "__v": 0,
    "categories": [ "dark", "cold"]
  },

  {
    "_id": "55c8ee82152165d244b98301",
    "name": "The Flinstones",
    "ingredients": "fennel, nutmeg leaves, parsley, cream of 'cream of cream', blarney",
    "caffeineScale": 49,
    "price": 7348,
    "inStock": true,
    "rating": 2,
    "imageUrl": "http://s7d5.scene7.com/is/image/Teavana/32303_d?$cimg$",
    "categories": ["kids"]
  }]
